Development workflow · JuliaNotes.jl
…
julia> ] # go to pkg prompt

(@v1.9) pkg> activate /home/user/.JuliaEnvironments/mydataplots/
  Activating project at `~/.JuliaEnvironments/mydataplots`

(mydataplots) pkg>
type backspace go back to the Julia prompt, and include the script (here with includet, assuming that Revise is loaded by default):

julia> includet("./myscript.jl")
This should take now a couple of seconds. And the responsiveness of the function should be good:

julia> @time data = my_data(1000)
  0.002078 seconds (33 allocations: 18.031 KiB, 94.87% compilation time)
1000×1 DataFrame
  Row │ x          
      │ Float64    
──────┼────────────
    1 │ -2.41804
    2 │ -0.51387
    3 │  0.953752
    4 │  0.738998
    5 │  0.973528
  ⋮   │     ⋮
  997 │  0.707327
  998 │  0.200788
  999 │ -0.84872
 1000 │ -1.49911
   991 rows omitted
…
